{
  "project_info": {
    "project_number": "326195095957",
    "firebase_url": "https://ajedreznm-default-rtdb.europe-west1.firebasedatabase.app",
    "project_id": "ajedreznm",
    "storage_bucket": "ajedreznm.appspot.com"
  },
  "client": [
    {
      "client_info": {
        "mobilesdk_app_id": "1:326195095957:android:bc62098875107379ddee9c",
        "android_client_info": {
          "package_name": "com.example.ajedrez"
        }
      },
      "oauth_client": [
        {
          "client_id": "326195095957-6kh445fk4assbonfuf2j0pocimsaga56.apps.googleusercontent.com",
          "client_type": 1,
          "android_info": {
            "package_name": "com.example.ajedrez",
            "certificate_hash": "a4ae7408b6eb769b6745089ee20f14bbd2e888ae"
          }
        },
        {
          "client_id": "326195095957-eivq3smekdeue7hn5pb0f8fffvj8p13g.apps.googleusercontent.com",
          "client_type": 3
        }
      ],
      "api_key": [
        {
          "current_key": "AIzaSyB5XGpizIi9_kYYH19hCo9iraRAvoctE_A"
        }
      ],
      "services": {
        "appinvite_service": {
          "other_platform_oauth_client": [
            {
              "client_id": "326195095957-eivq3smekdeue7hn5pb0f8fffvj8p13g.apps.googleusercontent.com",
              "client_type": 3
            }
          ]
        }
      }
    }
  ],
  "configuration_version": "1"
}